{
  "weight": 70,
  "density": 1.0,
  "min_height": 50,
  "dimension_filter": ["dimension_id:4598"],

  "generator": {
    "type": "ellipsoid",
    "radius": [16, 16]
  },
  "filler": {
    "type": "simple",
    "value": {
      "type": "weight_random",
      "values": [
        {
          "weight": 25,
          "value": "ore:lignite"
        },
        {
          "weight": 75,
          "value": "ore:coal"
        }
      ]
    }
  }
}