{
  "weight": 100,
  "density": 0.7,
  "min_height": 50,
  "surface_stone_material": "gold",
  "dimension_filter": ["dimension_id:4598"],

  "generator": {
    "type": "ellipsoid",
    "radius": [19, 22]
  },
  "filler": {
    "type": "simple",
    "value": {
      "type": "weight_random",
      "values": [
        {
          "weight": 60,
          "value": "ore:magnetite"
        },
        {
          "weight": 15,
          "value": "ore:iron"
        },
		{
          "weight": 15,
          "value": "ore:vanadium_magnetite"
        },
		{
          "weight": 10,
          "value": "ore:gold"
        }
      ]
    }
  }
}