{
  "weight": 20,
  "density": 0.6,
  "max_height": 50,
  "min_height": 20,
  "surface_stone_material": "platinum",
  "dimension_filter": ["dimension_id:0"],

  "generator": {
    "type": "ellipsoid",
    "radius": [13, 13]
  },
  "filler": {
    "type": "simple",
    "value": {
      "type": "weight_random",
      "values": [
		{
          "weight": 45,
          "value": "ore:platinum"
        },
		{
          "weight": 35,
          "value": "ore:palladium"
        },
		{
          "weight": 20,
          "value": "ore:iridium"
        }
      ]
    }
  }
}